Exercises from Class #16: map()
…
Reversing the process

Another useful application of map() is to read in a bunch of files. Here, we use the list of CSV paths and read_csv() to build a large data set of all of the simulated data. Note that the .id argument to map_dfr() ensures that the filename is included as a column in the resulting data frame. Otherwise, we wouldn’t know which data set came from which file!

all_data <- csv %>%
  map_dfr(read_csv, .id = "filename")

all_data

# A tibble: 21,000 × 3
   filename                                                         name   value
   <chr>                                                           <dbl>   <dbl>
 1 C:/Users/mario/AppData/Local/Temp/RtmpsLVUwH/random_data_100.c…     1  1.01  
 2 C:/Users/mario/AppData/Local/Temp/RtmpsLVUwH/random_data_100.c…     2  0.0546
 3 C:/Users/mario/AppData/Local/Temp/RtmpsLVUwH/random_data_100.c…     3 -0.441 
 4 C:/Users/mario/AppData/Local/Temp/RtmpsLVUwH/random_data_100.c…     4  0.717 
 5 C:/Users/mario/AppData/Local/Temp/RtmpsLVUwH/random_data_100.c…     5  0.548 
 6 C:/Users/mario/AppData/Local/Temp/RtmpsLVUwH/random_data_100.c…     6 -0.523 
 7 C:/Users/mario/AppData/Local/Temp/RtmpsLVUwH/random_data_100.c…     7 -1.93  
 8 C:/Users/mario/AppData/Local/Temp/RtmpsLVUwH/random_data_100.c…     8  1.53  
 9 C:/Users/mario/AppData/Local/Temp/RtmpsLVUwH/random_data_100.c…     9  1.14  
10 C:/Users/mario/AppData/Local/Temp/RtmpsLVUwH/random_data_100.c…    10  0.718 
# ℹ 20,990 more rows
…
