Exercises from Class #5: OOP and S3
…
PUT ANSWER HERE

ImportantQ3

What connects the (real-world) objects together with a car object?

PUT ANSWER HERE

Exercises: Set II

There are many methods for the print() generic available:

s3_methods_generic("print")

# A tibble: 321 × 4
   generic class             visible source             
   <chr>   <chr>             <lgl>   <chr>              
 1 print   acf               FALSE   registered S3method
 2 print   activeConcordance FALSE   registered S3method
 3 print   AES               FALSE   registered S3method
 4 print   all_vars          FALSE   registered S3method
 5 print   anova             FALSE   registered S3method
 6 print   any_vars          FALSE   registered S3method
 7 print   aov               FALSE   registered S3method
 8 print   aovlist           FALSE   registered S3method
 9 print   ar                FALSE   registered S3method
10 print   Arima             FALSE   registered S3method
# ℹ 311 more rows

Other common S3 generics include summary() and plot():

s3_methods_generic("summary")

# A tibble: 43 × 4
   generic class                 visible source             
   <chr>   <chr>                 <lgl>   <chr>              
 1 summary aov                   TRUE    stats              
 2 summary aovlist               FALSE   registered S3method
 3 summary aspell                FALSE   registered S3method
 4 summary check_packages_in_dir FALSE   registered S3method
 5 summary connection            TRUE    base               
 6 summary data.frame            TRUE    base               
 7 summary Date                  TRUE    base               
 8 summary default               TRUE    base               
 9 summary Duration              FALSE   registered S3method
10 summary ecdf                  FALSE   registered S3method
# ℹ 33 more rows

s3_methods_generic("plot")

# A tibble: 36 × 4
   generic class         visible source             
   <chr>   <chr>         <lgl>   <chr>              
 1 plot    acf           FALSE   registered S3method
 2 plot    data.frame    FALSE   registered S3method
 3 plot    decomposed.ts FALSE   registered S3method
 4 plot    default       TRUE    graphics           
 5 plot    dendrogram    FALSE   registered S3method
 6 plot    density       FALSE   registered S3method
 7 plot    ecdf          TRUE    stats              
 8 plot    factor        FALSE   registered S3method
 9 plot    formula       FALSE   registered S3method
10 plot    function      TRUE    graphics           
# ℹ 26 more rows

ImportantQ4

Try to think of another generic function that you’ve worked with in the past. Use s3_methods_generic() to find its available methods. [Note that you might have to load other packages to find the methods or the generic that you recall.]

# ANSWER HERE

In addition to listing the methods for a particular generic, we can find all the methods that are defined for a particular class using s3_methods_class():

s3_methods_class("tbl_df")

# A tibble: 21 × 4
   generic       class  visible source             
   <chr>         <chr>  <lgl>   <chr>              
 1 $             tbl_df FALSE   registered S3method
 2 $<-           tbl_df FALSE   registered S3method
 3 [             tbl_df FALSE   registered S3method
 4 [[            tbl_df FALSE   registered S3method
 5 [[<-          tbl_df FALSE   registered S3method
 6 [<-           tbl_df FALSE   registered S3method
 7 arrange_      tbl_df FALSE   registered S3method
 8 as.data.frame tbl_df FALSE   registered S3method
 9 distinct_     tbl_df FALSE   registered S3method
10 filter_       tbl_df FALSE   registered S3method
# ℹ 11 more rows
…
To use it, we just have to create an object of type sds270, and then call print(). Remember that in R you can simply modify the class attribute of any object!

class(starwars) <- c("sds270", class(starwars))
starwars

Jericho ❤️ s programming in R!
# A tibble: 87 × 14
   name     height  mass hair_color skin_color eye_color birth_year sex   gender
   <chr>     <int> <dbl> <chr>      <chr>      <chr>          <dbl> <chr> <chr> 
 1 Luke Sk…    172    77 blond      fair       blue            19   male  mascu…
 2 C-3PO       167    75 <NA>       gold       yellow         112   none  mascu…
 3 R2-D2        96    32 <NA>       white, bl… red             33   none  mascu…
 4 Darth V…    202   136 none       white      yellow          41.9 male  mascu…
 5 Leia Or…    150    49 brown      light      brown           19   fema… femin…
 6 Owen La…    178   120 brown, gr… light      blue            52   male  mascu…
 7 Beru Wh…    165    75 brown      light      blue            47   fema… femin…
 8 R5-D4        97    32 <NA>       white, red red             NA   none  mascu…
 9 Biggs D…    183    84 black      light      brown           24   male  mascu…
10 Obi-Wan…    182    77 auburn, w… fair       blue-gray       57   male  mascu…
# ℹ 77 more rows
# ℹ 5 more variables: homeworld <chr>, species <chr>, films <list>,
#   vehicles <list>, starships <list>
…
Since we haven’t defined any methods yet, the function won’t actually work! However, we can start by writing a default method that will simply call the existing print() generic.

print_emoji.default <- function(x, ...) {
  print(x, ...)
}

Now our print_emoji() function will work.

print_emoji(starwars)

Jericho ❤️ s programming in R!
# A tibble: 87 × 14
   name     height  mass hair_color skin_color eye_color birth_year sex   gender
   <chr>     <int> <dbl> <chr>      <chr>      <chr>          <dbl> <chr> <chr> 
 1 Luke Sk…    172    77 blond      fair       blue            19   male  mascu…
 2 C-3PO       167    75 <NA>       gold       yellow         112   none  mascu…
 3 R2-D2        96    32 <NA>       white, bl… red             33   none  mascu…
 4 Darth V…    202   136 none       white      yellow          41.9 male  mascu…
 5 Leia Or…    150    49 brown      light      brown           19   fema… femin…
 6 Owen La…    178   120 brown, gr… light      blue            52   male  mascu…
 7 Beru Wh…    165    75 brown      light      blue            47   fema… femin…
 8 R5-D4        97    32 <NA>       white, red red             NA   none  mascu…
 9 Biggs D…    183    84 black      light      brown           24   male  mascu…
10 Obi-Wan…    182    77 auburn, w… fair       blue-gray       57   male  mascu…
# ℹ 77 more rows
# ℹ 5 more variables: homeworld <chr>, species <chr>, films <list>,
#   vehicles <list>, starships <list>
…
