Exercises from Class #8: Control Flow
…
The if () ... else syntax is for control flow. However, ifelse() is a function that returns a vector of the same length as the vector you put in, based on some logical conditions. These are often useful inside mutate().

NoteNote

Note that there is also a function called if_else() that does the same thing, but is more strict about data types. You can use either function.

In the starwars data set, most characters have a species. However, there are many different species.

starwars |>
  group_by(species) |>
  count() |>
  arrange(desc(n))

# A tibble: 38 × 2
# Groups:   species [38]
   species      n
   <chr>    <int>
 1 Human       35
 2 Droid        6
 3 <NA>         4
 4 Gungan       3
 5 Kaminoan     2
 6 Mirialan     2
 7 Twi'lek      2
 8 Wookiee      2
 9 Zabrak       2
10 Aleena       1
# ℹ 28 more rows
…
