Exercises #2: Vectors
…
Ex. 6: Examine the output of as.numeric(head(storms$name)) and as.numeric(factor(head(storms$name))). What is going on?

# SOLUTION HERE

List-columns

Since data.frames are lists, their columns can be objects of arbitrary type. In particular, they can be lists.

We will create a list-column first using nest() and define a new tibble called stormsNamed.

stormsNamed <- storms %>% 
  nest(.by = name)
stormsNamed

# A tibble: 260 × 2
   name     data              
   <chr>    <list>            
 1 Amy      <tibble [31 × 12]>
 2 Blanche  <tibble [20 × 12]>
 3 Caroline <tibble [33 × 12]>
 4 Doris    <tibble [29 × 12]>
 5 Eloise   <tibble [46 × 12]>
 6 Faye     <tibble [19 × 12]>
 7 Gladys   <tibble [46 × 12]>
 8 Hallie   <tibble [14 × 12]>
 9 Belle    <tibble [18 × 12]>
10 Dottie   <tibble [10 × 12]>
# ℹ 250 more rows
…
nest() and unnest()

List-columns can be expanded by unnest(). This has the effect of lengthening the data frame (sort of like an accordion). Each row is duplicated for each unique value of each entry in the list-column.

Note that each row in storms corresponds to one character, while stormsNamed stores the list of tibbles that storm name has been used for. If we unnest() the data frame by expanding out the storm names, we get a data frame that is much longer, because each row now represents one storm using that name in a certain instance.

stormsNamed |>
  unnest(data)

# A tibble: 19,537 × 13
   name   year month   day  hour   lat  long status      category  wind pressure
   <chr> <dbl> <dbl> <int> <dbl> <dbl> <dbl> <fct>          <dbl> <int>    <int>
 1 Amy    1975     6    27     0  27.5 -79   tropical d…       NA    25     1013
 2 Amy    1975     6    27     6  28.5 -79   tropical d…       NA    25     1013
 3 Amy    1975     6    27    12  29.5 -79   tropical d…       NA    25     1013
 4 Amy    1975     6    27    18  30.5 -79   tropical d…       NA    25     1013
 5 Amy    1975     6    28     0  31.5 -78.8 tropical d…       NA    25     1012
 6 Amy    1975     6    28     6  32.4 -78.7 tropical d…       NA    25     1012
 7 Amy    1975     6    28    12  33.3 -78   tropical d…       NA    25     1011
 8 Amy    1975     6    28    18  34   -77   tropical d…       NA    30     1006
 9 Amy    1975     6    29     0  34.4 -75.8 tropical s…       NA    35     1004
10 Amy    1975     6    29     6  34   -74.8 tropical s…       NA    40     1002
# ℹ 19,527 more rows
# ℹ 2 more variables: tropicalstorm_force_diameter <int>,
#   hurricane_force_diameter <int>
…
Ex. 7: Now using the starwars tibble, experiment with list-columns by expanding and contracting the other list-columns in the storms data frame.

# SOLUTION HERE

Mapping over list columns

Suppose now we want to add the numbers of films for each character to the starwars data set. A simple mutate() like this will not throw an error, but also won’t do what we want.

oops <- starwars |>
  mutate(num_films = length(films)) |>
  arrange(desc(num_films)) |>
  select(name, num_films)
oops

# A tibble: 87 × 2
   name               num_films
   <chr>                  <int>
 1 Luke Skywalker            87
 2 C-3PO                     87
 3 R2-D2                     87
 4 Darth Vader               87
 5 Leia Organa               87
 6 Owen Lars                 87
 7 Beru Whitesun Lars        87
 8 R5-D4                     87
 9 Biggs Darklighter         87
10 Obi-Wan Kenobi            87
# ℹ 77 more rows

This just made all of the entries equal to length(films).

all(oops$num_films == length(starwars$films))

[1] TRUE

To get this right, we need to map() inside our mutate().

starwars |>
  mutate(num_films_actual = map_int(films, length)) |>
  arrange(desc(num_films_actual)) |>
  select(name, num_films_actual, films)

# A tibble: 87 × 3
   name           num_films_actual films    
   <chr>                     <int> <list>   
 1 R2-D2                         7 <chr [7]>
 2 C-3PO                         6 <chr [6]>
 3 Obi-Wan Kenobi                6 <chr [6]>
 4 Luke Skywalker                5 <chr [5]>
 5 Leia Organa                   5 <chr [5]>
 6 Chewbacca                     5 <chr [5]>
 7 Yoda                          5 <chr [5]>
 8 Palpatine                     5 <chr [5]>
 9 Darth Vader                   4 <chr [4]>
10 Han Solo                      4 <chr [4]>
# ℹ 77 more rows
…
