Exercises from Week 3, Lecture 1: Names and Values – SDS 270: Programming for Data Science in R, Spring 2026
…
[1] 3.758

However, if we modify iris using mutate(), a copy does get made.

iris |>
  mutate(petal_area = Petal.Length * Petal.Width) |>
  as_tibble()

tracemem[0x00000212ac05e468 -> 0x000002129fcbf808]: initialize <Anonymous> mutate_cols mutate.data.frame mutate as_tibble eval eval withVisible withCallingHandlers eval eval with_handlers doWithOneRestart withOneRestart withRestartList doWithOneRestart withOneRestart withRestartList withRestarts <Anonymous> evaluate in_dir in_input_dir eng_r block_exec call_block process_group withCallingHandlers with_options <Anonymous> process_file <Anonymous> <Anonymous> execute .main 
tracemem[0x000002129fcbf808 -> 0x000002129e834c38]: dplyr_new_list initialize <Anonymous> mutate_cols mutate.data.frame mutate as_tibble eval eval withVisible withCallingHandlers eval eval with_handlers doWithOneRestart withOneRestart withRestartList doWithOneRestart withOneRestart withRestartList withRestarts <Anonymous> evaluate in_dir in_input_dir eng_r block_exec call_block process_group withCallingHandlers with_options <Anonymous> process_file <Anonymous> <Anonymous> execute .main 
tracemem[0x000002129e834c38 -> 0x000002129e348aa8]: dplyr_new_list initialize <Anonymous> mutate_cols mutate.data.frame mutate as_tibble eval eval withVisible withCallingHandlers eval eval with_handlers doWithOneRestart withOneRestart withRestartList doWithOneRestart withOneRestart withRestartList withRestarts <Anonymous> evaluate in_dir in_input_dir eng_r block_exec call_block process_group withCallingHandlers with_options <Anonymous> process_file <Anonymous> <Anonymous> execute .main 
tracemem[0x00000212ac05e468 -> 0x000002129df7c418]: new_data_frame vec_data as.list dplyr_col_modify.data.frame dplyr_col_modify mutate.data.frame mutate as_tibble eval eval withVisible withCallingHandlers eval eval with_handlers doWithOneRestart withOneRestart withRestartList doWithOneRestart withOneRestart withRestartList withRestarts <Anonymous> evaluate in_dir in_input_dir eng_r block_exec call_block process_group withCallingHandlers with_options <Anonymous> process_file <Anonymous> <Anonymous> execute .main 
tracemem[0x000002129df7c418 -> 0x000002129df7c808]: as.list.data.frame as.list dplyr_col_modify.data.frame dplyr_col_modify mutate.data.frame mutate as_tibble eval eval withVisible withCallingHandlers eval eval with_handlers doWithOneRestart withOneRestart withRestartList doWithOneRestart withOneRestart withRestartList withRestarts <Anonymous> evaluate in_dir in_input_dir eng_r block_exec call_block process_group withCallingHandlers with_options <Anonymous> process_file <Anonymous> <Anonymous> execute .main 

# A tibble: 150 × 6
   Sepal.Length Sepal.Width Petal.Length Petal.Width Species petal_area
          <dbl>       <dbl>        <dbl>       <dbl> <fct>        <dbl>
 1          5.1         3.5          1.4         0.2 setosa        0.28
 2          4.9         3            1.4         0.2 setosa        0.28
 3          4.7         3.2          1.3         0.2 setosa        0.26
 4          4.6         3.1          1.5         0.2 setosa        0.3 
 5          5           3.6          1.4         0.2 setosa        0.28
 6          5.4         3.9          1.7         0.4 setosa        0.68
 7          4.6         3.4          1.4         0.3 setosa        0.42
 8          5           3.4          1.5         0.2 setosa        0.3 
 9          4.4         2.9          1.4         0.2 setosa        0.28
10          4.9         3.1          1.5         0.1 setosa        0.15
# ℹ 140 more rows
…
