Lab #4: Visualization Aesthetics (30 pts) – SDS 192: Introduction to Data Science, Spring 2026
…
hmda_denial_by_race_sex

# A tibble: 31 × 4
# Groups:   derived_race [8]
   derived_race                     derived_sex      total_denied percent_denied
   <chr>                            <chr>                   <int>          <dbl>
 1 2 or more minority races         Female                     15          0.556
 2 2 or more minority races         Joint                       6          0.429
 3 2 or more minority races         Male                        8          0.471
 4 2 or more minority races         Sex Not Availab…            4          0.667
 5 American Indian or Alaska Native Female                     20          0.476
 6 American Indian or Alaska Native Joint                       7          0.778
 7 American Indian or Alaska Native Male                       21          0.429
 8 American Indian or Alaska Native Sex Not Availab…            1          0.333
 9 Asian                            Female                     20          0.149
10 Asian                            Joint                      16          0.139
# ℹ 21 more rows
…
