Lecture #10: Data Wrangling
…
group_by() |> filter()

group_by() groups observations with a shared value in a variable

When we combine group_by() and filter() we can filter within groups

e.g. filter counties based on their populations being higher than the state means

midwest |>
  group_by(state) |>
  filter(poptotal > mean(poptotal)) |>
  select(county, state, poptotal)

# A tibble: 94 × 3
# Groups:   state [5]
   county    state poptotal
   <chr>     <chr>    <int>
 1 CHAMPAIGN IL      173025
 2 COOK      IL     5105067
 3 DU PAGE   IL      781666
 4 KANE      IL      317471
 5 LAKE      IL      516418
 6 MCHENRY   IL      183241
 7 MCLEAN    IL      129180
 8 MACON     IL      117206
 9 MADISON   IL      249238
10 PEORIA    IL      182827
# ℹ 84 more rows

group_by() |> mutate()

group_by() groups observations with a shared value in a variable

When we combine group_by() and mutate() we can perform operations within groups and add the resulting variable to the data frame

e.g. create column that shows how many SDs above or below mean of % with high school degree

midwest |>
  group_by(state) |>
  mutate(sdHS = (perchsd - mean(perchsd)) / sd(perchsd)) |>
  select(county, state, poptotal, sdHS)

# A tibble: 437 × 4
# Groups:   state [5]
   county    state poptotal   sdHS
   <chr>     <chr>    <int>  <dbl>
 1 ADAMS     IL       66090  0.289
 2 ALEXANDER IL       10626 -2.20 
 3 BOND      IL       14991 -0.646
 4 BOONE     IL       30806  0.349
 5 BROWN     IL        5836 -0.722
 6 BUREAU    IL       35688  0.536
 7 CALHOUN   IL        5322 -1.70 
 8 CARROLL   IL       16805  0.426
 9 CASS      IL       13437 -0.170
10 CHAMPAIGN IL      173025  2.30 
# ℹ 427 more rows

ungroup()

ungroup() returns data frame object to focus on individual-level transformations

midwest |>
  group_by(state) |>
  mutate(sdHS = (perchsd - mean(perchsd)) / sd(perchsd)) |>
  select(county, state, poptotal, sdHS) |>
  ungroup()

# A tibble: 437 × 4
   county    state poptotal   sdHS
   <chr>     <chr>    <int>  <dbl>
 1 ADAMS     IL       66090  0.289
 2 ALEXANDER IL       10626 -2.20 
 3 BOND      IL       14991 -0.646
 4 BOONE     IL       30806  0.349
 5 BROWN     IL        5836 -0.722
 6 BUREAU    IL       35688  0.536
 7 CALHOUN   IL        5322 -1.70 
 8 CARROLL   IL       16805  0.426
 9 CASS      IL       13437 -0.170
10 CHAMPAIGN IL      173025  2.30 
# ℹ 427 more rows
…
