Lab #8: Programming with Data
…
Tip

Check out what happens if you swap out your map function above for map, map_chr, or map_int. Can you figure out the relationship between these values and the original values?

It’s important to note that the unit of observation in this dataset is not one medical practitioner, and it is not one manufacturer. Instead it is one payment from a manufacturer to a medical practitioner. That means that a medical practitioner can appear multiple times in the dataset if they’ve received multiple payments, and a medical drug or device manufacturer can appear multiple times in the dataset if they’ve disbursed multiple payments. We can identify medical practitioners with the Covered_Recipient_NPI column and manufacturers with the Applicable_Manufacturer_or_Applicable_GPO_Making_Payment_ID column.

…but we want to know more than just the ID of a medical practitioner. To identify which doctors are receiving the most money, we also want to know that practitioner’s name, location, specialty, etc. Because practitioners’ names are manually entered into a database every time a payment is made to them, sometimes the formatting of a practitioner’s name entered for one payment can differ from how that same practitioner’s name is formatted when entered for another payment. The same goes for other variables related to that practitioner. For instance, check out how the capitalization differs for the practitioner below. In some cases, there is a middle initial, while in others, there is a full middle name; in some cases, the practitioner’s name is all capitalized, and in other cases it is not.

open_payments_dates_cleaned |>
  filter(Covered_Recipient_NPI == 1003047473) |>
  select(Covered_Recipient_First_Name, Covered_Recipient_Middle_Name, Covered_Recipient_Last_Name)

# A tibble: 31 × 3
   Covered_Recipient_First_Name Covered_Recipient_Middl…¹ Covered_Recipient_La…²
   <chr>                        <chr>                     <chr>                 
 1 Sherine                      M                         Hassey                
 2 Sherine                      M                         Hassey                
 3 Sherine                      M                         Hassey                
 4 Sherine                      M                         Hassey                
 5 Sherine                      M                         Hassey                
 6 SHERINE                      Mary                      HASSEY                
 7 SHERINE                      Mary                      HASSEY                
 8 SHERINE                      Mary                      HASSEY                
 9 SHERINE                      M                         HASSEY                
10 SHERINE                      M                         HASSEY                
# ℹ 21 more rows
# ℹ abbreviated names: ¹​Covered_Recipient_Middle_Name,
#   ²​Covered_Recipient_Last_Name
…
      Covered_Recipient_NPI Covered_Recipient_Full_Name 
                      22244                       22316 

Notice that there are still more full names than Covered_Recipient_NPIs, which means that certain doctors have multiple names in this dataset. Below I’ve written some code to calculate the number unique full names listed for each Covered_Recipient_NPI and filter to the rows with more than one name. Can you identify some reasons why we might have multiple names listed for this same medical practitioner in this data frame?

open_payments |>
  group_by(Covered_Recipient_NPI) |>
  mutate(num_names = length(unique(Covered_Recipient_Full_Name))) |>
  ungroup() |>
  filter(num_names > 1) |>
  select(Covered_Recipient_NPI, Covered_Recipient_Full_Name) |>
  distinct() |>
  arrange(desc(Covered_Recipient_NPI))

# A tibble: 818 × 2
   Covered_Recipient_NPI Covered_Recipient_Full_Name
                   <dbl> <chr>                      
 1            1992991657 Lana Schumacher- Beal      
 2            1992991657 Lana Schumacher-Beal       
 3            1992991657 Lana Schumacher            
 4            1992932453 Jessica Ravikoff           
 5            1992932453 Jessica Allegretti         
 6            1992788160 Jonathan Slater            
 7            1992788160 John Slater                
 8            1992712178 Pasi Janne                 
 9            1992712178 Pasi Antero Janne          
10            1992059679 Carolyn Bagley             
# ℹ 808 more rows
…
