Set #1 (50 pts) – SDS 270: Programming for Data Science in R, Spring 2026
…
Important(c)

Using one line of code, determine how many unique dates there are in the chiroLarvae dataset.

[1] 16

Important(d)

Create a new column for the chiroLarvae dataset named bigBug that identifies a bug as “big” if its size is greater than 3 mm and “little” otherwise. Do so in two ways:

Using base R subsetting

Using dplyr commands

# A tibble: 1,577 × 7
   Sample_ID Collection_Date Collection_Method Lifestage Bug_Size_mm Taxon      
   <fct>     <date>          <fct>             <fct>           <dbl> <fct>      
 1 MST4_2017 2020-08-19      Kick net          Larvae            2.8 Chironomin…
 2 MST4_2017 2020-08-19      Kick net          Larvae            1.8 Chironomin…
 3 MST4_2017 2020-08-19      Kick net          Larvae            2   Chironomin…
 4 MST4_2017 2020-08-19      Kick net          Larvae            3.2 Chironomin…
 5 MST4_2017 2020-08-19      Kick net          Larvae            4.2 Chironomin…
 6 MST4_2017 2020-08-19      Kick net          Larvae            4   Chironomin…
 7 MST4_2017 2020-08-19      Kick net          Larvae            3.6 Chironomin…
 8 MST4_2017 2020-08-19      Kick net          Larvae            3   Chironomin…
 9 MST4_2017 2020-08-19      Kick net          Larvae            4.8 Orthocladi…
10 MST4_2017 2020-08-19      Kick net          Larvae            2.2 Orthocladi…
# ℹ 1,567 more rows
# ℹ 1 more variable: bigBug <chr>
…
Refine the meanTaxons vector such that the names are the unique taxons.

From here, summarize the benefits and disadvantages of using each of these two data structures with regards to application, memory usage, and how information is stored.

Warning: package 'lobstr' was built under R version 4.4.3

7.63 kB

2.18 kB

Important(d)

Repeat step (b), but using only dplyr commands. Recall that you are summarizing information from the data frame.

# A tibble: 25 × 2
   Taxon                             avg
   <fct>                           <dbl>
 1 Agabus                           9.8 
 2 Apatania                         5.4 
 3 Baetis                           1.2 
 4 Brachycentrus                    2   
 5 Chelifera                        5.8 
 6 Chironomidae                     3   
 7 Chironominae                     3.49
 8 Clinocera                        4.27
 9 Dicranota                        6.95
10 Ephemerella dorothea/excrucians  5.6 
# ℹ 15 more rows
…
